3.178680488000000e+01  1.102269731000000e+01  1.190000000000000e+02  2.838982191422632e-05  8.206713997851859e-06  -8.287483537585701e-06 
2.914816225000000e+01  1.013639622000000e+01  1.090833333300000e+02  3.377091047417076e-04  -1.326328416224085e-03  2.915138659173281e-05 
2.650716234000000e+01  9.242684980000000e+00  9.916666667000000e+01  2.738221706606146e-04  -1.326458593595635e-03  4.707028854711607e-05 
2.386388038000000e+01  8.341798989999999e+00  8.925000000000000e+01  2.265038035289285e-04  -1.291015313874110e-03  5.732997732200587e-05 
2.121842756000000e+01  7.434086780000000e+00  7.933333333000000e+01  1.856749018391331e-04  -1.233457959760813e-03  6.374971734109938e-05 
1.857094924000000e+01  6.520004580000000e+00  6.941666667000000e+01  1.507001469315364e-04  -1.151728957775380e-03  6.625381492832489e-05 
1.592162266000000e+01  5.600109070000000e+00  5.950000000000000e+01  1.201825338432135e-04  -1.043885850840200e-03  6.498813374729995e-05 
1.327065418000000e+01  4.675048680000000e+00  4.958333333000000e+01  9.378923521672782e-05  -9.067845571411707e-04  5.971209122071285e-05 
1.061827598000000e+01  3.745553340000000e+00  3.966666667000000e+01  6.905465201050180e-05  -7.330063955915681e-04  5.036590911839757e-05 
7.964742420000000e+00  2.812422980000000e+00  2.975000000000000e+01  6.224051526562218e-05  -5.384700119748103e-04  3.408677968960085e-05 
5.310326040000000e+00  1.876514920000000e+00  1.983333333000000e+01  3.985463779983672e-05  -3.041712906407450e-04  1.806652544718289e-05 
2.655313300000000e+00  9.387303299999999e-01  9.916666670000000e+00  1.849451520029231e-05  -8.981067803687795e-05  3.545515444242946e-06 
0.000000000000000e+00  0.000000000000000e+00  0.000000000000000e+00  -5.843577397257785e-08  1.281345314817903e-07  3.517464011010032e-09 
-2.655313300000000e+00  -9.387303299999999e-01  -9.916666670000000e+00  -1.855705084031080e-05  8.997805802523183e-05  -3.544607772758390e-06 
-5.310326040000000e+00  -1.876514920000000e+00  -1.983333333000000e+01  -4.002259590660620e-05  3.044459987039597e-04  -1.804752978462898e-05 
-7.964742420000000e+00  -2.812422980000000e+00  -2.975000000000000e+01  -6.220974313118964e-05  5.383679601390724e-04  -3.408537818503884e-05 
-1.061827598000000e+01  -3.745553340000000e+00  -3.966666667000000e+01  -6.923194194538243e-05  7.332533754228292e-04  -5.034161521645300e-05 
-1.327065418000000e+01  -4.675048680000000e+00  -4.958333333000000e+01  -9.324978157600190e-05  9.051453407006637e-04  -5.970302915778266e-05 
-1.592162266000000e+01  -5.600109070000000e+00  -5.950000000000000e+01  -1.197525968234334e-04  1.042825110201047e-03  -6.500457343130647e-05 
-1.857094924000000e+01  -6.520004580000000e+00  -6.941666667000000e+01  -1.505920153099069e-04  1.151600231932383e-03  -6.627082409330887e-05 
-2.121842756000000e+01  -7.434086780000000e+00  -7.933333333000000e+01  -1.855619969053912e-04  1.233264714916677e-03  -6.376194533302474e-05 
-2.386388038000000e+01  -8.341798989999999e+00  -8.925000000000000e+01  -2.266094390170472e-04  1.291170747349384e-03  -5.731598492255343e-05 
-2.650716234000000e+01  -9.242684980000000e+00  -9.916666667000000e+01  -2.737862193393863e-04  1.326415612592529e-03  -4.707598235214235e-05 
-2.914816225000000e+01  -1.013639622000000e+01  -1.090833333300000e+02  -3.376618974333545e-04  1.326261884989202e-03  -2.915795800975537e-05 
-3.178680488000000e+01  -1.102269731000000e+01  -1.190000000000000e+02  -2.828765139305790e-05  -8.335468516985828e-06  8.271805264288047e-06 
3.046748356000000e+01  1.057954676000000e+01  1.140416666700000e+02  3.055225024460949e-04  1.286241336170421e-05  -8.244349617804246e-05 
3.112714422000000e+01  1.080112204000000e+01  1.165208333300000e+02  1.627944824904941e-04  4.245969847634795e-05  -4.711144942579635e-05 
3.145697455000000e+01  1.091190967000000e+01  1.177604166700000e+02  8.393401940884186e-05  2.338191764491925e-05  -2.442305580696946e-05 
3.162188972000000e+01  1.096730349000000e+01  1.183802083300000e+02  5.693926612274102e-05  1.636819728963786e-05  -1.661339773596741e-05 
2.782766229000000e+01  9.689540600000001e+00  1.041250000000000e+02  3.509562882607698e-04  -9.990572888779145e-05  -8.446272137057655e-05 
2.518552136000000e+01  8.792241990000001e+00  9.420833333000000e+01  2.910339521546220e-04  -1.051009806702711e-04  -6.802697084525201e-05 
2.254115397000000e+01  7.887942880000000e+00  8.429166667000000e+01  2.447113954033243e-04  -1.092336308188636e-04  -5.528266391000365e-05 
1.989468840000000e+01  6.977045680000000e+00  7.437500000000000e+01  2.037306675568711e-04  -1.086281742347870e-04  -4.437755750775881e-05 
1.724628595000000e+01  6.060056830000000e+00  6.445833333000000e+01  1.671988639652917e-04  -1.038406835992600e-04  -3.503614948823137e-05 
1.459613842000000e+01  5.137578870000000e+00  5.454166667000000e+01  1.336915696275156e-04  -9.391403996405673e-05  -2.697841800488746e-05 
1.194446508000000e+01  4.210301010000000e+00  4.462500000000000e+01  1.032780815112342e-04  -8.143400865052078e-05  -1.999058828707588e-05 
9.291509200000000e+00  3.278988160000000e+00  3.470833333000000e+01  8.253426849112272e-05  -7.146667808297081e-05  -1.535997218849149e-05 
6.637534230000000e+00  2.344468950000000e+00  2.479166667000000e+01  6.344306137201533e-05  -5.879497273366869e-05  -1.143303654455418e-05 
3.982819670000000e+00  1.407622620000000e+00  1.487500000000000e+01  3.764942418296943e-05  -3.665311882418300e-05  -6.613812181510206e-06 
1.327656650000000e+00  4.693651600000000e-01  4.958333330000000e+00  1.254972319346717e-05  -1.256080989609196e-05  -2.171317671856820e-06 
-1.327656650000000e+00  -4.693651600000000e-01  -4.958333330000000e+00  -1.244719393280244e-05  1.234523258869531e-05  2.164271115248425e-06 
-3.982819670000000e+00  -1.407622620000000e+00  -1.487500000000000e+01  -3.752052125631987e-05  3.633434968747933e-05  6.609445580493996e-06 
-6.637534230000000e+00  -2.344468950000000e+00  -2.479166667000000e+01  -6.344932183509187e-05  5.888890342180307e-05  1.142584737357668e-05 
-9.291509200000000e+00  -3.278988160000000e+00  -3.470833333000000e+01  -8.247377229327713e-05  7.149134240000757e-05  1.534146357866624e-05 
-1.194446508000000e+01  -4.210301010000000e+00  -4.462500000000000e+01  -1.034510417773344e-04  8.206878152198797e-05  1.997735174386781e-05 
-1.459613842000000e+01  -5.137578870000000e+00  -5.454166667000000e+01  -1.338776130879707e-04  9.466583488129333e-05  2.695802200392240e-05 
-1.724628595000000e+01  -6.060056830000000e+00  -6.445833333000000e+01  -1.676789331427339e-04  1.048308825927372e-04  3.507255087451908e-05 
-1.989468840000000e+01  -6.977045680000000e+00  -7.437500000000000e+01  -2.040551133115092e-04  1.091562332537344e-04  4.441550107938052e-05 
-2.254115397000000e+01  -7.887942880000000e+00  -8.429166667000000e+01  -2.445322148635311e-04  1.089563483966008e-04  5.526024498312216e-05 
-2.518552136000000e+01  -8.792241990000001e+00  -9.420833333000000e+01  -2.909921355670325e-04  1.050421121594683e-04  6.802117260516470e-05 
-2.782766229000000e+01  -9.689540600000001e+00  -1.041250000000000e+02  -3.510458791541437e-04  1.000149778173258e-04  8.447673540878004e-05 
-3.046748356000000e+01  -1.057954676000000e+01  -1.140416666700000e+02  -3.055065354916894e-04  -1.286928706851646e-05  8.243986200196109e-05 
-3.112714422000000e+01  -1.080112204000000e+01  -1.165208333300000e+02  -1.627950235261226e-04  -4.249843277288336e-05  4.711505525912217e-05 
-3.145697455000000e+01  -1.091190967000000e+01  -1.177604166700000e+02  -8.400136518491342e-05  -2.329047263597321e-05  2.443280239171618e-05 
-3.162188972000000e+01  -1.096730349000000e+01  -1.183802083300000e+02  -5.697552548594937e-05  -1.629577654383865e-05  1.661657308702906e-05 
