#
#	ParaDiS nodal data file (by create_loop_data.tcl) 
#
 
#
#	File version number
#
 
2
 
#
#	Number of data file segments
#
 
1
 
#
#	Minimum coordinate values (x, y, z)
#

-3 -3 -3   
 
#
#	Maximum coordinate values (x, y, z)
#
 
3 3 3   
 
#
#	Node count
#
 
20   
 
#
#	Domain geometry (x, y, z)
#
 
1   1   1  
 
#
#	Domain boundaries (x, y, z)
#
 
   -3
       -3
           -3
           3
       3
   3
#
#	Primary lines: node_tag, x, y, z, num_arms, constraint
#	Secondary lines: arm_tag, burgx, burgy, burgz, nx, ny, nz
#
#       length in unit of burgMag
 
     10,0      1.9021130325899999e-01 8.4370160244491754e-01 4.3701602444917505e-02 2 0
           10,1      0.57735026919 0.57735026919 0.57735026919   
                       0.0 -0.707106781187 0.707106781187
           10,19      -0.57735026919 -0.57735026919 -0.57735026919   
                       0.0 -0.707106781187 0.707106781187
     10,1      1.6180339887500000e-01 8.8312538755519421e-01 8.3125387555194122e-02 2 0
           10,2      0.57735026919 0.57735026919 0.57735026919   
                       0.0 -0.707106781187 0.707106781187
           10,0      -0.57735026919 -0.57735026919 -0.57735026919   
                       0.0 -0.707106781187 0.707106781187
     10,2      1.1755705045800000e-01 9.1441228056361756e-01 1.1441228056361750e-01 2 0
           10,3      0.57735026919 0.57735026919 0.57735026919   
                       0.0 -0.707106781187 0.707106781187
           10,1      -0.57735026919 -0.57735026919 -0.57735026919   
                       0.0 -0.707106781187 0.707106781187
     10,3      6.1803398874999999e-02 9.3449970239285585e-01 1.3449970239285580e-01 2 0
           10,4      0.57735026919 0.57735026919 0.57735026919   
                       0.0 -0.707106781187 0.707106781187
           10,2      -0.57735026919 -0.57735026919 -0.57735026919   
                       0.0 -0.707106781187 0.707106781187
     10,4      1.2246063538200001e-17 9.4142135623740009e-01 1.4142135623740001e-01 2 0
           10,5      0.57735026919 0.57735026919 0.57735026919   
                       0.0 -0.707106781187 0.707106781187
           10,3      -0.57735026919 -0.57735026919 -0.57735026919   
                       0.0 -0.707106781187 0.707106781187
     10,5      -6.1803398874999999e-02 9.3449970239285585e-01 1.3449970239285580e-01 2 0
           10,6      0.57735026919 0.57735026919 0.57735026919   
                       0.0 -0.707106781187 0.707106781187
           10,4      -0.57735026919 -0.57735026919 -0.57735026919   
                       0.0 -0.707106781187 0.707106781187
     10,6      -1.1755705045800000e-01 9.1441228056361756e-01 1.1441228056361750e-01 2 0
           10,7      0.57735026919 0.57735026919 0.57735026919   
                       0.0 -0.707106781187 0.707106781187
           10,5      -0.57735026919 -0.57735026919 -0.57735026919   
                       0.0 -0.707106781187 0.707106781187
     10,7      -1.6180339887500000e-01 8.8312538755519421e-01 8.3125387555194122e-02 2 0
           10,8      0.57735026919 0.57735026919 0.57735026919   
                       0.0 -0.707106781187 0.707106781187
           10,6      -0.57735026919 -0.57735026919 -0.57735026919   
                       0.0 -0.707106781187 0.707106781187
     10,8      -1.9021130325899999e-01 8.4370160244491754e-01 4.3701602444917505e-02 2 0
           10,9      0.57735026919 0.57735026919 0.57735026919   
                       0.0 -0.707106781187 0.707106781187
           10,7      -0.57735026919 -0.57735026919 -0.57735026919   
                       0.0 -0.707106781187 0.707106781187
     10,9      -2.0000000000000001e-01 8.0000000000000004e-01 1.7318549141416175e-17 2 0
           10,10      0.57735026919 0.57735026919 0.57735026919   
                       0.0 -0.707106781187 0.707106781187
           10,8      -0.57735026919 -0.57735026919 -0.57735026919   
                       0.0 -0.707106781187 0.707106781187
     10,10      -1.9021130325899999e-01 7.5629839755508255e-01 -4.3701602444917505e-02 2 0
           10,11      0.57735026919 0.57735026919 0.57735026919   
                       0.0 -0.707106781187 0.707106781187
           10,9      -0.57735026919 -0.57735026919 -0.57735026919   
                       0.0 -0.707106781187 0.707106781187
     10,11      -1.6180339887500000e-01 7.1687461244480588e-01 -8.3125387555194122e-02 2 0
           10,12      0.57735026919 0.57735026919 0.57735026919   
                       0.0 -0.707106781187 0.707106781187
           10,10      -0.57735026919 -0.57735026919 -0.57735026919   
                       0.0 -0.707106781187 0.707106781187
     10,12      -1.1755705045800000e-01 6.8558771943638253e-01 -1.1441228056361750e-01 2 0
           10,13      0.57735026919 0.57735026919 0.57735026919   
                       0.0 -0.707106781187 0.707106781187
           10,11      -0.57735026919 -0.57735026919 -0.57735026919   
                       0.0 -0.707106781187 0.707106781187
     10,13      -6.1803398874999999e-02 6.6550029760714424e-01 -1.3449970239285580e-01 2 0
           10,14      0.57735026919 0.57735026919 0.57735026919   
                       0.0 -0.707106781187 0.707106781187
           10,12      -0.57735026919 -0.57735026919 -0.57735026919   
                       0.0 -0.707106781187 0.707106781187
     10,14      -3.6738190614700003e-17 6.5857864376260000e-01 -1.4142135623740001e-01 2 0
           10,15      0.57735026919 0.57735026919 0.57735026919   
                       0.0 -0.707106781187 0.707106781187
           10,13      -0.57735026919 -0.57735026919 -0.57735026919   
                       0.0 -0.707106781187 0.707106781187
     10,15      6.1803398874999999e-02 6.6550029760714424e-01 -1.3449970239285580e-01 2 0
           10,16      0.57735026919 0.57735026919 0.57735026919   
                       0.0 -0.707106781187 0.707106781187
           10,14      -0.57735026919 -0.57735026919 -0.57735026919   
                       0.0 -0.707106781187 0.707106781187
     10,16      1.1755705045800000e-01 6.8558771943638253e-01 -1.1441228056361750e-01 2 0
           10,17      0.57735026919 0.57735026919 0.57735026919   
                       0.0 -0.707106781187 0.707106781187
           10,15      -0.57735026919 -0.57735026919 -0.57735026919   
                       0.0 -0.707106781187 0.707106781187
     10,17      1.6180339887500000e-01 7.1687461244480588e-01 -8.3125387555194122e-02 2 0
           10,18      0.57735026919 0.57735026919 0.57735026919   
                       0.0 -0.707106781187 0.707106781187
           10,16      -0.57735026919 -0.57735026919 -0.57735026919   
                       0.0 -0.707106781187 0.707106781187
     10,18      1.9021130325899999e-01 7.5629839755508255e-01 -4.3701602444917505e-02 2 0
           10,19      0.57735026919 0.57735026919 0.57735026919   
                       0.0 -0.707106781187 0.707106781187
           10,17      -0.57735026919 -0.57735026919 -0.57735026919   
                       0.0 -0.707106781187 0.707106781187
     10,19      2.0000000000000001e-01 8.0000000000000004e-01 -3.4637098282903051e-17 2 0
           10,0      0.57735026919 0.57735026919 0.57735026919   
                       0.0 -0.707106781187 0.707106781187
           10,18      -0.57735026919 -0.57735026919 -0.57735026919   
                       0.0 -0.707106781187 0.707106781187
