dataFileVersion =   4  
numFileSegments =   1  
minCoordinates = [
-15000.
-15000.
-15000.
  ]
maxCoordinates = [
15000.
15000.
15000.
  ]
nodeCount =   40  
dataDecompType =   1  
dataDecompGeometry = [
  1
  1
  1
  ]

#
#  END OF DATA FILE PARAMETERS
#

domainDecomposition = 
-15000.
-15000.
-15000.
 15000.
 15000.
 15000.



nodalData = 
#  Primary lines: node_tag, x, y, z, num_arms, constraint
#  Secondary lines: arm_tag, burgx, burgy, burgz, nx, ny, nz
     0,0    5000.  0. 1000.     1   6
           0,1       .577350 .577350 .577350
                     .707107 -.707107 0.00
     0,1    4750.  0. 950.    2   0
           0,0       -.577350 -.577350 -.577350
                     .707107 -.707107 0.00
           0,2       .577350 .577350 .577350
                     .707107 -.707107 0.00
     0,2    4500.  0. 900.    2   0
           0,1       -.577350 -.577350 -.577350
                     .707107 -.707107 0.00
           0,3       .577350 .577350 .577350
                     .707107 -.707107 0.00
     0,3    4250.  0. 850.    2   0
           0,2       -.577350 -.577350 -.577350
                     .707107 -.707107 0.00
           0,4       .577350 .577350 .577350
                     .707107 -.707107 0.00
     0,4    4000.  0. 800.    2   0
           0,3       -.577350 -.577350 -.577350
                     .707107 -.707107 0.00
           0,5       .577350 .577350 .577350
                     .707107 -.707107 0.00
     0,5    3750.  0. 750.    2   0
           0,4       -.577350 -.577350 -.577350
                     .707107 -.707107 0.00
           0,6       .577350 .577350 .577350
                     .707107 -.707107 0.00
     0,6    3500.  0. 700.    2   0
           0,5       -.577350 -.577350 -.577350
                     .707107 -.707107 0.00
           0,7       .577350 .577350 .577350
                     .707107 -.707107 0.00
     0,7    3250.  0. 650.    2   0
           0,6       -.577350 -.577350 -.577350
                     .707107 -.707107 0.00
           0,8       .577350 .577350 .577350
                     .707107 -.707107 0.00
     0,8    3000.  0. 600.    2   0
           0,7       -.577350 -.577350 -.577350
                     .707107 -.707107 0.00
           0,9       .577350 .577350 .577350
                     .707107 -.707107 0.00
     0,9    2750.  0. 550.    2   0
           0,8       -.577350 -.577350 -.577350
                     .707107 -.707107 0.00
           0,10       .577350 .577350 .577350
                     .707107 -.707107 0.00
     0,10   2500.  0. 500.    2   0
           0,9       -.577350 -.577350 -.577350
                     .707107 -.707107 0.00
           0,11       .577350 .577350 .577350
                     .707107 -.707107 0.00
     0,11   2250.  0. 450.    2   0
           0,10       -.577350 -.577350 -.577350
                     .707107 -.707107 0.00
           0,12       .577350 .577350 .577350
                     .707107 -.707107 0.00
     0,12   2000.  0. 400.    2   0
           0,11       -.577350 -.577350 -.577350
                     .707107 -.707107 0.00
           0,13       .577350 .577350 .577350
                     .707107 -.707107 0.00
     0,13   1750.  0. 350.    2   0
           0,12       -.577350 -.577350 -.577350
                     .707107 -.707107 0.00
           0,14       .577350 .577350 .577350
                     .707107 -.707107 0.00
     0,14   1500.  0. 300.    2   0
           0,13       -.577350 -.577350 -.577350
                     .707107 -.707107 0.00
           0,15       .577350 .577350 .577350
                     .707107 -.707107 0.00
     0,15   1250.  0. 250.    2   0
           0,14       -.577350 -.577350 -.577350
                     .707107 -.707107 0.00
           0,16       .577350 .577350 .577350
                     .707107 -.707107 0.00
     0,16   1000.  0. 200.    2   0
           0,15       -.577350 -.577350 -.577350
                     .707107 -.707107 0.00
           0,17       .577350 .577350 .577350
                     .707107 -.707107 0.00
     0,17   750.  0. 150.    2   0
           0,16       -.577350 -.577350 -.577350
                     .707107 -.707107 0.00
           0,18       .577350 .577350 .577350
                     .707107 -.707107 0.00
     0,18   500.  0. 100.    2   0
           0,17       -.577350 -.577350 -.577350
                     .707107 -.707107 0.00
           0,19       .577350 .577350 .577350
                     .707107 -.707107 0.00
     0,19   250.  0. 50.    2   0
           0,18       -.577350 -.577350 -.577350
                     .707107 -.707107 0.00
           0,20       .577350 .577350 .577350
                     .707107 -.707107 0.00
     0,20    0.  0. 0.    2   0
           0,19      -.577350 -.577350 -.577350
                     .707107 -.707107 0.00
           0,21       .577350 .577350 .577350
                     .707107 -.707107 0.00
     0,21   -250.  0. -50.    2   0
           0,20       -.577350 -.577350 -.577350
                     .707107 -.707107 0.00
           0,22       .577350 .577350 .577350
                     .707107 -.707107 0.00
     0,22   -500.  0. -100.    2   0
           0,21       -.577350 -.577350 -.577350
                     .707107 -.707107 0.00
           0,23       .577350 .577350 .577350
                     .707107 -.707107 0.00
     0,23   -750.  0. -150.    2   0
           0,22       -.577350 -.577350 -.577350
                     .707107 -.707107 0.00
           0,24       .577350 .577350 .577350
                     .707107 -.707107 0.00
     0,24   -1000.  0. -200.    2   0
           0,23       -.577350 -.577350 -.577350
                     .707107 -.707107 0.00
           0,25       .577350 .577350 .577350
                     .707107 -.707107 0.00
     0,25    -1250.  0. -250.    2   0
           0,24       -.577350 -.577350 -.577350
                     .707107 -.707107 0.00
           0,26       .577350 .577350 .577350
                     .707107 -.707107 0.00
     0,26    -1500.  0. -300.    2   0
           0,25       -.577350 -.577350 -.577350
                     .707107 -.707107 0.00
           0,27       .577350 .577350 .577350
                     .707107 -.707107 0.00
     0,27    -1750.  0. -350.    2   0
           0,26       -.577350 -.577350 -.577350
                     .707107 -.707107 0.00
           0,28       .577350 .577350 .577350
                     .707107 -.707107 0.00
     0,28    -2000.  0. -400.    2   0
           0,27       -.577350 -.577350 -.577350
                     .707107 -.707107 0.00
           0,29       .577350 .577350 .577350
                     .707107 -.707107 0.00
     0,29    -2250.  0. -450.    2   0
           0,28       -.577350 -.577350 -.577350
                     .707107 -.707107 0.00
           0,30       .577350 .577350 .577350
                     .707107 -.707107 0.00
     0,30    -2500.  0. -500.    2   0
           0,29       -.577350 -.577350 -.577350
                     .707107 -.707107 0.00
           0,31       .577350 .577350 .577350
                     .707107 -.707107 0.00
     0,31   -2750.  0. -550.    2   0
           0,30       -.577350 -.577350 -.577350
                     .707107 -.707107 0.00
           0,32       .577350 .577350 .577350
                     .707107 -.707107 0.00
     0,32   -3000.  0. -600.    2   0
           0,31       -.577350 -.577350 -.577350
                     .707107 -.707107 0.00
           0,33       .577350 .577350 .577350
                     .707107 -.707107 0.00
     0,33   -3250.  0. -650.    2   0
           0,32       -.577350 -.577350 -.577350
                     .707107 -.707107 0.00
           0,34       .577350 .577350 .577350
                     .707107 -.707107 0.00
     0,34   -3500.  0. -700.    2   0
           0,33       -.577350 -.577350 -.577350
                     .707107 -.707107 0.00
           0,35       .577350 .577350 .577350
                     .707107 -.707107 0.00
     0,35   -3750.  0. -750.    2   0
           0,34       -.577350 -.577350 -.577350
                     .707107 -.707107 0.00
           0,36       .577350 .577350 .577350
                     .707107 -.707107 0.00
     0,36   -4000.  0. -800.    2   0
           0,35       -.577350 -.577350 -.577350
                     .707107 -.707107 0.00
           0,37       .577350 .577350 .577350
                     .707107 -.707107 0.00
     0,37   -4250.  0. -850.    2   0
           0,36       -.577350 -.577350 -.577350
                     .707107 -.707107 0.00
           0,38       .577350 .577350 .577350
                     .707107 -.707107 0.00
     0,38   -4500.  0. -900.    2   0
           0,37       -.577350 -.577350 -.577350
                     .707107 -.707107 0.00
           0,39       .577350 .577350 .577350
                     .707107 -.707107 0.00
     0,39   -4750.  0. -950.    2   0
           0,38       -.577350 -.577350 -.577350
                     .707107 -.707107 0.00
           0,40       .577350 .577350 .577350
                     .707107 -.707107 0.00
     0,40   -5000.  0. -1000.   1   6
           0,39       -.577350 -.577350 -.577350
                     .707107 -.707107 0.00