-4.746720000000000e+02  4.690000000000000e-01  4.958000000000000e+00  -8.635624490599828e-04  2.656799681815768e-04  2.060431005847611e-04 
-4.720170000000000e+02  1.408000000000000e+00  1.487500000000000e+01  -6.724271444435747e-04  -1.722395673905518e-04  1.963347069729491e-04 
-4.693620000000000e+02  2.344000000000000e+00  2.479200000000000e+01  -7.003501567230467e-04  2.450170206282984e-04  1.643954154050255e-04 
-4.667080000000000e+02  3.279000000000000e+00  3.470800000000000e+01  -7.243782449307866e-04  -1.937364607308798e-04  2.120337202476078e-04 
-4.640560000000000e+02  4.210000000000000e+00  4.462500000000000e+01  -2.780961559521195e-04  8.760403305483728e-05  6.619692899223468e-05 
-4.614040000000000e+02  5.138000000000000e+00  5.454200000000000e+01  -9.455369243441611e-05  -6.618484329512311e-04  8.700855430785238e-05 
-4.587540000000000e+02  6.060000000000000e+00  6.445800000000000e+01  -2.860246654111613e-04  -2.768296383179512e-04  1.020818931996365e-04 
-4.561050000000000e+02  6.977000000000000e+00  7.437500000000000e+01  -5.512611816315129e-04  -1.943830165009205e-04  1.650732330378744e-04 
-4.534590000000000e+02  7.888000000000000e+00  8.429200000000000e+01  -5.516516746749084e-04  -3.247547112838535e-04  1.768880846426462e-04 
-4.508140000000000e+02  8.792000000000000e+00  9.420800000000000e+01  -6.344693808281962e-04  2.081143003814281e-04  1.501886374101157e-04 
-4.481720000000000e+02  9.690000000000000e+00  1.041250000000000e+02  -3.890480751913084e-04  -5.066521100892895e-04  1.492499429660522e-04 
-4.443780000000000e+02  1.096700000000000e+01  1.183800000000000e+02  -7.353720530419155e-05  8.143867062595004e-05  1.245317490779864e-05 
-4.445430000000000e+02  1.091200000000000e+01  1.177600000000000e+02  -1.042171251947169e-03  1.849522791551064e-04  2.610616347383832e-04 
-4.448730000000000e+02  1.080100000000000e+01  1.165210000000000e+02  -5.928923032672135e-04  -2.249498111721283e-04  1.776724606539794e-04 
-4.455330000000000e+02  1.058000000000000e+01  1.140420000000000e+02  6.550050176063613e-04  -4.246231405883903e-04  -1.364311671838048e-04 
-4.760000000000000e+02  0.000000000000000e+00  0.000000000000000e+00  -5.355300767609884e-04  -1.569175691830094e-04  1.582852524980849e-04 
-4.733450000000000e+02  9.389999999999999e-01  9.917000000000000e+00  -1.909590878698044e-04  -5.775600792238779e-04  1.058085539715603e-04 
-4.706900000000000e+02  1.877000000000000e+00  1.983300000000000e+01  -2.020906068092283e-04  -1.070220892963303e-03  1.551196063990262e-04 
-4.680350000000000e+02  2.812000000000000e+00  2.975000000000000e+01  -4.558011423490734e-04  -4.607756818661529e-04  1.654396481916912e-04 
-4.653820000000000e+02  3.746000000000000e+00  3.966700000000000e+01  -2.033599820513404e-04  -1.368136887131990e-03  1.828254014899211e-04 
-4.627290000000000e+02  4.675000000000000e+00  4.958300000000000e+01  -8.176955100800841e-04  -8.848872322150230e-04  3.014677505614217e-04 
-4.600780000000000e+02  5.600000000000000e+00  5.950000000000000e+01  -7.389649875817459e-04  -8.861035570678810e-04  2.798785384702366e-04 
-4.574290000000000e+02  6.520000000000000e+00  6.941700000000000e+01  -3.723610418619809e-04  -1.300014919538079e-03  2.196742622111699e-04 
-4.547820000000000e+02  7.434000000000000e+00  7.933300000000000e+01  -1.407889357198951e-04  -1.357578421362412e-03  1.622854536527752e-04 
-4.521360000000000e+02  8.342000000000001e+00  8.925000000000000e+01  -4.165903599685798e-04  -1.591864983105039e-03  2.562756503757060e-04 
-4.494930000000000e+02  9.243000000000000e+00  9.916700000000000e+01  -6.080515822112721e-07  -1.623693117177541e-03  1.471781586169372e-04 
-4.468520000000000e+02  1.013600000000000e+01  1.090830000000000e+02  -2.637960730083257e-04  -8.485487192598013e-04  1.463731142304758e-04 
-4.442130000000000e+02  1.102300000000000e+01  1.190000000000000e+02  -2.142529608398365e-05  -8.225964506872817e-05  1.313179673872480e-05 
