2.678017000000000e+02  -5.573929999999996e+01  -3.257342000000000e+02  3.445062005650263e-03  1.900901151386854e-04  -3.635151896651457e-03 
2.114484000000000e+02  -1.120925999999999e+02  -3.820875000000000e+02  -2.523231481324246e-04  1.920390967214152e-03  -1.668067819081746e-03 
1.550951000000000e+02  -1.684458999999999e+02  -4.384408000000000e+02  -3.967528402574014e-03  3.860776145073054e-03  1.067488236335509e-04 
9.874189999999999e+01  -2.247992000000000e+02  -4.947941000000000e+02  -2.261716742971422e-03  7.100539566101413e-04  1.551659485536658e-03 
4.238860000000000e+01  -2.811525000000000e+02  -5.511473999999999e+02  -9.725779614938077e-04  -2.462663081089118e-03  3.435241042574439e-03 
