dataFileVersion =   4  
numFileSegments =   1  
minCoordinates = [
  -1.750000e+04
  -1.750000e+04
  -1.750000e+04
  ]
maxCoordinates = [
  1.750000e+04
  1.750000e+04
  1.750000e+04
  ]
nodeCount =   11
dataDecompType =   1  
dataDecompGeometry = [
  1
  1
  1
  ]

#
#  END OF DATA FILE PARAMETERS
#

domainDecomposition = 
 -17500.0000
     -17500.0000
         -17500.0000
          17500.0000
      17500.0000
  17500.0000


nodalData = 
#  Primary lines: node_tag, x, y, z, num_arms, constraint
#  Secondary lines: arm_tag, burgx, burgy, burgz, nx, ny, nz
     0,0       0 -5.00000000000000e+002  0.00000000000000e+000 1 7
           0,4      0 1 0
                 0 0 1
     0,1       0  5.00000000000000e+002  0.00000000000000e+000 1 7
           0,12      0 -1 0
                 0 0 1
     0,4       6.18033988749895e+000 -4.00000000000000e+002  0.00000000000000e+000 2 0
           0,0      0 -1 0
                 0 0 1
           0,5      0 1 0
                 0 0 1
     0,5       1.17557050458495e+001 -3.00000000000000e+002  0.00000000000000e+000 2 0
           0,4      0 -1 0
                 0 0 1
           0,6      0 1 0
                 0 0 1
     0,6       1.61803398874989e+001 -2.00000000000000e+002  0.00000000000000e+000 2 0
           0,5      0 -1 0
                 0 0 1
           0,7      0 1 0
                 0 0 1
     0,7       1.90211303259031e+001 -1.00000000000000e+002  0.00000000000000e+000 2 0
           0,6      0 -1 0
                 0 0 1
           0,8      0 1 0
                 0 0 1
     0,8       2.00000000000000e+001  0.00000000000000e+000  0.00000000000000e+000 2 0
           0,7      0 -1 0
                 0 0 1
           0,9      0 1 0
                 0 0 1
     0,9       1.90211303259031e+001  1.00000000000000e+002  0.00000000000000e+000 2 0
           0,8      0 -1 0
                 0 0 1
           0,10      0 1 0
                 0 0 1
     0,10       1.61803398874989e+001  2.00000000000000e+002  0.00000000000000e+000 2 0
           0,9      0 -1 0
                 0 0 1
           0,11      0 1 0
                 0 0 1
     0,11       1.17557050458495e+001  3.00000000000000e+002  0.00000000000000e+000 2 0
           0,10      0 -1 0
                 0 0 1
           0,12      0 1 0
                 0 0 1
     0,12       6.18033988749895e+000  4.00000000000000e+002  0.00000000000000e+000 2 0
           0,11      0 -1 0
                 0 0 1
           0,1      0 1 0
                 0 0 1
