6.180339887498949e+00  -4.000000000000000e+02  0.000000000000000e+00  -3.274028719567663e-01  2.035206589554939e-02  -2.636425910531876e+00
1.175570504584946e+01  -3.000000000000000e+02  0.000000000000000e+00  -4.332746935949517e-01  2.325665854909609e-02  -1.152385772262559e+00
1.618033988749895e+01  -2.000000000000000e+02  0.000000000000000e+00  -5.572678606562679e-01  2.178893523182879e-02  -8.597112095621395e-01
1.902113032590307e+01  -1.000000000000000e+02  0.000000000000000e+00  -6.470618699029467e-01  1.330922967171055e-02  -7.479803310391112e-01
2.000000000000000e+01  0.000000000000000e+00  0.000000000000000e+00  -6.762960186437699e-01  3.335998144393670e-12  -7.170799869751502e-01
1.902113032590307e+01  1.000000000000000e+02  0.000000000000000e+00  -6.470618696631362e-01  -1.330922966592496e-02  -7.479803305935999e-01
1.618033988749895e+01  2.000000000000000e+02  0.000000000000000e+00  -5.572678586324376e-01  -2.178893517033487e-02  -8.597112109269879e-01
1.175570504584946e+01  3.000000000000000e+02  0.000000000000000e+00  -4.332746959741360e-01  -2.325665868588445e-02  -1.152385774602640e+00
6.180339887498949e+00  4.000000000000000e+02  0.000000000000000e+00  -3.274028795030408e-01  -2.035206634948494e-02  -2.636425913193114e+00
