dataFileVersion =   4  
numFileSegments =   1  
minCoordinates = [
  -4500.00
  -4500.00
  -4500.00
  ]
maxCoordinates = [
  4500.00
  4500.00
  4500.00
  ]
nodeCount =  4
dataDecompType =   1  
dataDecompGeometry = [
  1
  1
  1
  ]

#
#  END OF DATA FILE PARAMETERS
#

domainDecomposition = 
 -4500.00
     -4500.00
         -4500.00
          4500.00
      4500.00
  4500.00

nodalData = 
#  Primary lines: node_tag, x, y, z, num_arms, constraint
#  Secondary lines: arm_tag, burgx, burgy, burgz, nx, ny, nz
     0,0       0.00000000000000e+000 -1.90000000000000e+003  1.50000000000000e+003 1 6
           0,1       0.0000000000e+000  5.0000000000e-001 -5.0000000000e-001
                 -5.7735026919e-001 -5.7735026919e-001 -5.7735026919e-001   0.0000000000e+000  0.0000000000e+000  0.0000000000e+000
     0,1       0.00000000000000e+000 -2.00000000000000e+002 -2.00000000000000e+002 2 0
           0,0       0.0000000000e+000 -5.0000000000e-001  5.0000000000e-001
                 -5.7735026919e-001 -5.7735026919e-001 -5.7735026919e-001   0.0000000000e+000  0.0000000000e+000  0.0000000000e+000
           0,2       0.0000000000e+000  5.0000000000e-001 -5.0000000000e-001
                 -1.0000000000e+000  0.0000000000e+000  0.0000000000e+000   0.0000000000e+000  0.0000000000e+000  0.0000000000e+000
     0,2       0.00000000000000e+000  2.00000000000000e+002  2.00000000000000e+002 2 0
           0,1       0.0000000000e+000 -5.0000000000e-001  5.0000000000e-001
                 -1.0000000000e+000  0.0000000000e+000  0.0000000000e+000   0.0000000000e+000  0.0000000000e+000  0.0000000000e+000
           0,3       0.0000000000e+000  5.0000000000e-001 -5.0000000000e-001
                 -5.7735026919e-001 -5.7735026919e-001 -5.7735026919e-001   0.0000000000e+000  0.0000000000e+000  0.0000000000e+000
     0,3       0.00000000000000e+000  1.90000000000000e+003 -1.50000000000000e+003 1 6
           0,2       0.0000000000e+000 -5.0000000000e-001  5.0000000000e-001
                 -5.7735026919e-001 -5.7735026919e-001 -5.7735026919e-001   0.0000000000e+000  0.0000000000e+000  0.0000000000e+000

