dataFileVersion =   4
numFileSegments =   1
minCoordinates = [
 -3.
 -3.
 -3.
 ]
maxCoordinates = [
  3.
  3.
  3.
 ]
dataDecompType =   1
dataDecompGeometry = [
 1
 1
 1 
]

nodeCount =   8

domainDecomposition = 
 -3
 -3
 -3
  3
  3
  3
nodalData = 
0,   0        0.2              0.0000000        0.4       2 0
    0, 1      0.0000000        0.0000000        1.0000000
              0.0000000        1.0000000        0.0000000
    0, 4      0.0000000        0.0000000       -1.0000000
              0.0000000        1.0000000        0.0000000
0, 1         -0.2              0.0000000        0.4       2 0
    0, 5      0.0000000        0.0000000        1.0000000
              0.0000000        1.0000000        0.0000000
    0, 0      0.0000000        0.0000000       -1.0000000
              0.0000000        1.0000000        0.0000000
0, 2         -0.2              0.0000000       -0.4       2 0
    0, 3      0.0000000        0.0000000        1.0000000
              0.0000000        1.0000000        0.0000000
    0, 6      0.0000000        0.0000000       -1.0000000
              0.0000000        1.0000000        0.0000000
0, 3          0.2              0.0000000       -0.4       2 0
    0, 7      0.0000000        0.0000000        1.0000000
              0.0000000        1.0000000        0.0000000
    0, 2      0.0000000        0.0000000       -1.0000000
              0.0000000        1.0000000        0.0000000
0,   4        0.2              0.0000000        0.1       2 0
    0, 0      0.0000000        0.0000000        1.0000000
              0.0000000        1.0000000        0.0000000
    0, 7      0.0000000        0.0000000       -1.0000000
              0.0000000        1.0000000        0.0000000
0,   5       -0.2              0.0000000        0.1       2 0
    0, 6      0.0000000        0.0000000        1.0000000
              0.0000000        1.0000000        0.0000000
    0, 1      0.0000000        0.0000000       -1.0000000
              0.0000000        1.0000000        0.0000000
0,   6       -0.2              0.0000000       -0.1000000 2 0
    0, 2      0.0000000        0.0000000        1.0000000
              0.0000000        1.0000000        0.0000000
    0, 5      0.0000000        0.0000000       -1.0000000
              0.0000000        1.0000000        0.0000000
0,   7        0.2000000        0.0000000       -0.1000000 2 0
    0, 4      0.0000000        0.0000000        1.0000000
              0.0000000        1.0000000        0.0000000
    0, 3      0.0000000        0.0000000       -1.0000000
              0.0000000        1.0000000        0.0000000
