dataFileVersion =   4  
numFileSegments =   1  
minCoordinates = [
  -4.760000e+02
  -4.760000e+02
  -4.760000e+02
  ]
maxCoordinates = [
  4.760000e+02
  4.760000e+02
  4.760000e+02
  ]
nodeCount =   25  
dataDecompType =   1  
dataDecompGeometry = [
  1
  1
  1
  ]

#
#  END OF DATA FILE PARAMETERS
#

domainDecomposition = 
   -476.0000
       -476.0000
           -476.0000
            476.0000
        476.0000
    476.0000

nodalData = 
#  Primary lines: node_tag, x, y, z, num_arms, constraint
#  Secondary lines: arm_tag, burgx, burgy, burgz, nx, ny, nz
 0,0 337.56634075 119.00000000 119.00000000 1 6
   0,1     0.9941320000     0.0764898000     0.0764898000
           0.0000000000    -0.7071067812     0.7071067812
 0,1 300.89071773 109.08333333 109.08333333 2 0
   0,0    -0.9941320000    -0.0764898000    -0.0764898000
           0.0000000000    -0.7071067812     0.7071067812
   0,2     0.9941320000     0.0764898000     0.0764898000
           0.0000000000    -0.7071067812     0.7071067812
 0,2 267.07002042 99.16666667 99.16666667 2 0
   0,1    -0.9941320000    -0.0764898000    -0.0764898000
           0.0000000000    -0.7071067812     0.7071067812
   0,3     0.9941320000     0.0764898000     0.0764898000
           0.0000000000    -0.7071067812     0.7071067812
 0,3 235.71825144 89.25000000 89.25000000 2 0
   0,2    -0.9941320000    -0.0764898000    -0.0764898000
           0.0000000000    -0.7071067812     0.7071067812
   0,4     0.9941320000     0.0764898000     0.0764898000
           0.0000000000    -0.7071067812     0.7071067812
 0,4 206.20591032 79.33333333 79.33333333 2 0
   0,3    -0.9941320000    -0.0764898000    -0.0764898000
           0.0000000000    -0.7071067812     0.7071067812
   0,5     0.9941320000     0.0764898000     0.0764898000
           0.0000000000    -0.7071067812     0.7071067812
 0,5 178.10823793 69.41666667 69.41666667 2 0
   0,4    -0.9941320000    -0.0764898000    -0.0764898000
           0.0000000000    -0.7071067812     0.7071067812
   0,6     0.9941320000     0.0764898000     0.0764898000
           0.0000000000    -0.7071067812     0.7071067812
 0,6 151.10466061 59.50000000 59.50000000 2 0
   0,5    -0.9941320000    -0.0764898000    -0.0764898000
           0.0000000000    -0.7071067812     0.7071067812
   0,7     0.9941320000     0.0764898000     0.0764898000
           0.0000000000    -0.7071067812     0.7071067812
 0,7 124.97796580 49.58333333 49.58333333 2 0
   0,6    -0.9941320000    -0.0764898000    -0.0764898000
           0.0000000000    -0.7071067812     0.7071067812
   0,8     0.9941320000     0.0764898000     0.0764898000
           0.0000000000    -0.7071067812     0.7071067812
 0,8 99.56985294 39.66666667 39.66666667 2 0
   0,7    -0.9941320000    -0.0764898000    -0.0764898000
           0.0000000000    -0.7071067812     0.7071067812
   0,9     0.9941320000     0.0764898000     0.0764898000
           0.0000000000    -0.7071067812     0.7071067812
 0,9 74.66260027 29.75000000 29.75000000 2 0
   0,8    -0.9941320000    -0.0764898000    -0.0764898000
           0.0000000000    -0.7071067812     0.7071067812
   0,10     0.9941320000     0.0764898000     0.0764898000
           0.0000000000    -0.7071067812     0.7071067812
 0,10 49.88529352 19.83333333 19.83333333 2 0
   0,9    -0.9941320000    -0.0764898000    -0.0764898000
           0.0000000000    -0.7071067812     0.7071067812
   0,11     0.9941320000     0.0764898000     0.0764898000
           0.0000000000    -0.7071067812     0.7071067812
 0,11 25.14806307 9.91666667 9.91666667 2 0
   0,10    -0.9941320000    -0.0764898000    -0.0764898000
           0.0000000000    -0.7071067812     0.7071067812
   0,12     0.9941320000     0.0764898000     0.0764898000
           0.0000000000    -0.7071067812     0.7071067812
 0,12 0.0000000 0.00000000 0.00000000 2 0
   0,11    -0.9941320000    -0.0764898000    -0.0764898000
           0.0000000000    -0.7071067812     0.7071067812
   0,13     0.9941320000     0.0764898000     0.0764898000
           0.0000000000    -0.7071067812     0.7071067812
 0,13 -25.14806307 -9.91666667 -9.91666667 2 0
   0,12    -0.9941320000    -0.0764898000    -0.0764898000
           0.0000000000    -0.7071067812     0.7071067812
   0,14     0.9941320000     0.0764898000     0.0764898000
           0.0000000000    -0.7071067812     0.7071067812
 0,14  -49.88529352 -19.83333333 -19.83333333 2 0
   0,13    -0.9941320000    -0.0764898000    -0.0764898000
           0.0000000000    -0.7071067812     0.7071067812
   0,15     0.9941320000     0.0764898000     0.0764898000
           0.0000000000    -0.7071067812     0.7071067812
 0,15 -74.66260027 -29.75000000 -29.75000000 2 0
   0,14    -0.9941320000    -0.0764898000    -0.0764898000
           0.0000000000    -0.7071067812     0.7071067812
   0,16     0.9941320000     0.0764898000     0.0764898000
           0.0000000000    -0.7071067812     0.7071067812
 0,16 -99.56985294 -39.66666667 -39.66666667 2 0
   0,15    -0.9941320000    -0.0764898000    -0.0764898000
           0.0000000000    -0.7071067812     0.7071067812
   0,17     0.9941320000     0.0764898000     0.0764898000
           0.0000000000    -0.7071067812     0.7071067812
 0,17 -124.97796580 -49.58333333 -49.58333333 2 0
   0,16    -0.9941320000    -0.0764898000    -0.0764898000
           0.0000000000    -0.7071067812     0.7071067812
   0,18     0.9941320000     0.0764898000     0.0764898000
           0.0000000000    -0.7071067812     0.7071067812
 0,18 -151.10466061 -59.50000000 -59.50000000 2 0
   0,17    -0.9941320000    -0.0764898000    -0.0764898000
           0.0000000000    -0.7071067812     0.7071067812
   0,19     0.9941320000     0.0764898000     0.0764898000
           0.0000000000    -0.7071067812     0.7071067812
 0,19 -178.10823793 -69.41666667 -69.41666667 2 0
   0,18    -0.9941320000    -0.0764898000    -0.0764898000
           0.0000000000    -0.7071067812     0.7071067812
   0,20     0.9941320000     0.0764898000     0.0764898000
           0.0000000000    -0.7071067812     0.7071067812
 0,20 -206.20591032 -79.33333333 -79.33333333 2 0
   0,19    -0.9941320000    -0.0764898000    -0.0764898000
           0.0000000000    -0.7071067812     0.7071067812
   0,21     0.9941320000     0.0764898000     0.0764898000
           0.0000000000    -0.7071067812     0.7071067812
 0,21 -235.71825144 -89.25000000 -89.25000000 2 0
   0,20    -0.9941320000    -0.0764898000    -0.0764898000
           0.0000000000    -0.7071067812     0.7071067812
   0,22     0.9941320000     0.0764898000     0.0764898000
           0.0000000000    -0.7071067812     0.7071067812
 0,22 -267.07002042 -99.16666667 -99.16666667 2 0
   0,21    -0.9941320000    -0.0764898000    -0.0764898000
           0.0000000000    -0.7071067812     0.7071067812
   0,23     0.9941320000     0.0764898000     0.0764898000
           0.0000000000    -0.7071067812     0.7071067812
 0,23 -300.89071773 -109.08333333 -109.08333333 2 0
   0,22    -0.9941320000    -0.0764898000    -0.0764898000
           0.0000000000    -0.7071067812     0.7071067812
   0,24     0.9941320000     0.0764898000     0.0764898000
           0.0000000000    -0.7071067812     0.7071067812
 0,24 -337.56634075 -119.00000000 -119.00000000 1 6
   0,23    -0.9941320000    -0.0764898000    -0.0764898000
           0.0000000000    -0.7071067812     0.7071067812
